{
    "KPlugin": {
        "Description": "Provides location updates for Night Light",
        "Description[ar]": "يقدم تحديثات الموقع للإضاءة الليلية",
        "Description[bg]": "Осигурява актуализиране на местоположението за Нощни цветове",
        "Description[ca@valencia]": "Proporciona actualitzacions d'ubicació per a la llum de nit",
        "Description[ca]": "Proporciona actualitzacions d'ubicació per a la llum de nit",
        "Description[es]": "Proporciona actualizaciones de la ubicación para la luz nocturna",
        "Description[he]": "מספק עדכוני מקום לתאורת לילה",
        "Description[ia]": "Provide actualisationes de location per Lumine de Nocte",
        "Description[ka]": "მდებარეობის განახლებები ღამის ფერებისთვის",
        "Description[nl]": "Biedt het bijwerken van de locatie voor nachtlicht",
        "Description[sl]": "Zagotavlja posodobitve lokacije za nočno barvo",
        "Description[tr]": "Gece Işığı için konum güncellemeleri sağlar",
        "Description[uk]": "Надає оновлення даних щодо місця перебування для «Нічних кольорів»",
        "Description[x-test]": "xxProvides location updates for Night Lightxx",
        "Description[zh_CN]": "为夜间颜色提供位置更新",
        "Name": "Automatic Location for Night Light",
        "Name[ar]": "موقع آلي للإضاءة الليلية",
        "Name[bg]": "Автоматично определяне на местоположение за Нощни цветове",
        "Name[ca@valencia]": "Ubicació automàtica de la llum de nit",
        "Name[ca]": "Ubicació automàtica de la llum de nit",
        "Name[es]": "Ubicación automática para la luz nocturna",
        "Name[he]": "מקום אוטומטי לתאורת לילה",
        "Name[ia]": "Location automatic per Lumine de Nocte",
        "Name[ka]": "ავტომატური მდებარეობა ღამის ფერისთვის",
        "Name[nl]": "Automatische locatie voor nachtlicht",
        "Name[sl]": "Samodejna lokacija za nočno barvo",
        "Name[tr]": "Gece Işığı için Otomatik Konum",
        "Name[uk]": "Автоматичне місце для «Нічних кольорів»",
        "Name[x-test]": "xxAutomatic Location for Night Lightxx",
        "Name[zh_CN]": "夜间颜色自动位置"
    },
    "X-KDE-Kded-autoload": true
}
